         __         _
        / _|       (_)
 _ __  | |_  _ __   _   __ _  _ __ ___    __ _  _ __
| '_ \ |  _|| '_ \ | | / _` || '_ ` _ \  / _` || '__|
| |_) || |  | |_) || || (_| || | | | | || (_| || |
| .__/ |_|  | .__/ |_| \__,_||_| |_| |_| \__, ||_|
| |         | |                           __/ |
|_|         |_|                          |___/
    Powered by Spring Boot v${spring-boot.version}